0.765534746362967 1.50
0.765534746362967 1.48
0.847996906554959 1.44
0.847996906554959 1.47
0.678071905112633 1.50
0.765534746362967 1.45
0.765534746362967 1.51
0.765534746362967 1.50
0.847996906554959 1.42
0.847996906554959 1.43
0.925999418556228 1.43
0.847996906554959 1.40
0.847996906554959 1.47
0.847996906554959 1.48
0.925999418556228 1.49
0.847996906554959 1.38
0.847996906554959 1.53
0.925999418556228 1.55
0.847996906554959 1.47
0.847996906554959 1.51
0.847996906554959 1.44
0.847996906554959 1.49
0.847996906554959 1.46
0.847996906554959 1.56
0.678071905112633 1.41
0.678071905112633 1.50
0.678071905112633 1.35
0.678071905112633 1.51
0.678071905112633 1.39
0.678071905112633 1.44
0.765534746362967 1.44
0.584962500721156 1.41
0.925999418556228 1.43
0.925999418556228 1.45
0.847996906554959 1.60
1 1.49
0.925999418556228 1.55
1 1.50
0.925999418556228 1.52
1 1.50
0.678071905112633 1.43
0.678071905112633 1.39
0.678071905112633 1.53
0.678071905112633 1.51
0.678071905112633 1.49
0.678071905112633 1.43
0.584962500721156 1.42
0.678071905112633 1.36
0.765534746362967 1.36
0.765534746362967 1.42
0.765534746362967 1.56
0.678071905112633 1.48
0.678071905112633 1.47
0.678071905112633 1.53
0.765534746362967 1.54
0.678071905112633 1.41
0.765534746362967 1.38
0.678071905112633 1.45
0.765534746362967 1.36
0.765534746362967 1.36
0.678071905112633 1.38
0.678071905112633 1.38
0.678071905112633 1.43
0.765534746362967 1.48
0.847996906554959 1.39
0.765534746362967 1.52
0.765534746362967 1.47
0.765534746362967 1.52
0.765534746362967 1.48
0.765534746362967 1.49
0.765534746362967 1.35
0.765534746362967 1.49
0.765534746362967 1.36
0.847996906554959 1.37
0.847996906554959 1.36
0.765534746362967 1.57
0.765534746362967 1.45
0.678071905112633 1.51
0.765534746362967 1.41
0.847996906554959 1.42
0.847996906554959 1.41
0.765534746362967 1.44
0.765534746362967 1.46
0.847996906554959 1.46
0.765534746362967 1.54
0.765534746362967 1.53
0.847996906554959 1.39
0.765534746362967 1.40
0.678071905112633 1.43
0.678071905112633 1.35
0.765534746362967 1.44
0.678071905112633 1.48
0.678071905112633 1.40
0.678071905112633 1.53
0.678071905112633 1.40
0.678071905112633 1.45
0.765534746362967 1.39
0.678071905112633 1.49
0.678071905112633 1.40
0.765534746362967 1.41
0.765534746362967 1.37
0.765534746362967 1.56
0.678071905112633 1.43
0.678071905112633 1.52
0.678071905112633 1.45
0.678071905112633 1.44
0.765534746362967 1.33
0.678071905112633 1.49
0.678071905112633 1.50
0.847996906554959 1.34
0.847996906554959 1.43
0.678071905112633 1.42
0.678071905112633 1.39
0.584962500721156 1.44
0.678071905112633 1.42
0.678071905112633 1.51
0.678071905112633 1.44
0.765534746362967 1.39
0.678071905112633 1.57
0.678071905112633 1.53
0.584962500721156 1.41
0.584962500721156 1.46
0.584962500721156 1.46
0.584962500721156 1.50
0.584962500721156 1.49
0.584962500721156 1.39
0.678071905112633 1.47
0.584962500721156 1.44
0.678071905112633 1.47
0.678071905112633 1.48
0.678071905112633 1.41
0.678071905112633 1.49
0.765534746362967 1.33
0.765534746362967 1.50
0.678071905112633 1.42
0.765534746362967 1.55
0.847996906554959 1.37
0.847996906554959 1.45
0.765534746362967 1.43
0.765534746362967 1.51
0.765534746362967 1.41
0.765534746362967 1.43
0.765534746362967 1.44
0.765534746362967 1.51
0.678071905112633 1.50
0.584962500721156 1.42
0.678071905112633 1.53
0.678071905112633 1.45
0.765534746362967 1.40
0.678071905112633 1.47
0.584962500721156 1.41
0.678071905112633 1.46
0.678071905112633 1.46
0.678071905112633 1.38
0.678071905112633 1.44
0.678071905112633 1.44
0.678071905112633 1.42
0.678071905112633 1.40
0.678071905112633 1.58
0.678071905112633 1.43
0.765534746362967 1.45
0.765534746362967 1.42
0.678071905112633 1.50
0.678071905112633 1.38
0.678071905112633 1.53
0.678071905112633 1.41
0.678071905112633 1.37
0.678071905112633 1.43
0.765534746362967 1.35
0.678071905112633 1.43
0.765534746362967 1.40
0.678071905112633 1.44
0.765534746362967 1.32
0.678071905112633 1.43
0.765534746362967 1.43
0.765534746362967 1.48
0.765534746362967 1.48
0.765534746362967 1.48
0.678071905112633 1.38
0.678071905112633 1.55
0.678071905112633 1.40
0.765534746362967 1.45
0.678071905112633 1.48
0.678071905112633 1.45
0.678071905112633 1.41
0.678071905112633 1.48
0.678071905112633 1.45
0.765534746362967 1.46
0.765534746362967 1.51
0.678071905112633 1.51
0.678071905112633 1.49
0.678071905112633 1.56
0.765534746362967 1.48
0.765534746362967 1.33
0.678071905112633 1.40
0.678071905112633 1.49
0.678071905112633 1.48
0.765534746362967 1.42
0.678071905112633 1.59
0.765534746362967 1.39
0.678071905112633 1.63
0.678071905112633 1.30
0.678071905112633 1.53
0.765534746362967 1.42
0.765534746362967 1.52
0.678071905112633 1.41
0.765534746362967 1.27
0.765534746362967 1.39
0.765534746362967 1.41
0.678071905112633 1.47
0.765534746362967 1.47
0.765534746362967 1.42
0.765534746362967 1.42
0.678071905112633 1.39
0.678071905112633 1.57
0.765534746362967 1.47
0.678071905112633 1.48
0.765534746362967 1.36
0.678071905112633 1.44
0.678071905112633 1.44
0.765534746362967 1.52
0.678071905112633 1.43
0.765534746362967 1.40
0.765534746362967 1.43
0.765534746362967 1.40
0.847996906554959 1.42
0.765534746362967 1.59
0.678071905112633 1.45
0.765534746362967 1.39
0.678071905112633 1.37
0.847996906554959 1.42
0.765534746362967 1.45
0.847996906554959 1.40
0.847996906554959 1.54
0.847996906554959 1.44
0.765534746362967 1.46
0.847996906554959 1.37
0.765534746362967 1.52
0.847996906554959 1.56
0.847996906554959 1.52
0.847996906554959 1.43
0.847996906554959 1.45
0.925999418556228 1.44
0.925999418556228 1.41
0.847996906554959 1.45
0.847996906554959 1.42
0.925999418556228 1.44
0.925999418556228 1.40
0.678071905112633 1.41
0.584962500721156 1.42
0.678071905112633 1.46
0.678071905112633 1.45
0.678071905112633 1.47
0.678071905112633 1.58
0.678071905112633 1.39
0.584962500721156 1.42
0.847996906554959 1.37
0.847996906554959 1.47
0.847996906554959 1.32
0.847996906554959 1.55
0.847996906554959 1.45
0.847996906554959 1.37
0.847996906554959 1.38
0.765534746362967 1.43
0.847996906554959 1.50
0.925999418556228 1.48
0.765534746362967 1.44
0.847996906554959 1.48
0.765534746362967 1.43
0.925999418556228 1.42
0.925999418556228 1.48
0.765534746362967 1.51
0.678071905112633 1.41
0.678071905112633 1.49
0.678071905112633 1.46
0.765534746362967 1.52
0.678071905112633 1.46
0.678071905112633 1.52
0.678071905112633 1.53
0.678071905112633 1.48
0.765534746362967 1.45
0.678071905112633 1.57
0.678071905112633 1.49
0.678071905112633 1.49
0.678071905112633 1.44
0.765534746362967 1.42
0.765534746362967 1.40
0.678071905112633 1.42
0.678071905112633 1.46
0.678071905112633 1.45
0.678071905112633 1.51
0.678071905112633 1.53
0.584962500721156 1.51
0.678071905112633 1.43
0.678071905112633 1.31
0.765534746362967 1.38
0.925999418556228 1.50
0.925999418556228 1.62
0.765534746362967 1.43
0.847996906554959 1.42
0.925999418556228 1.49
0.847996906554959 1.49
0.925999418556228 1.44
0.847996906554959 1.44
0.678071905112633 1.42
0.765534746362967 1.43
0.765534746362967 1.42
0.765534746362967 1.46
0.678071905112633 1.51
0.678071905112633 1.58
0.765534746362967 1.46
0.678071905112633 1.43
0.678071905112633 1.49
0.678071905112633 1.50
0.678071905112633 1.32
0.765534746362967 1.49
0.678071905112633 1.49
0.678071905112633 1.46
0.678071905112633 1.45
0.765534746362967 1.39
0.765534746362967 1.42
0.678071905112633 1.43
0.765534746362967 1.53
0.765534746362967 1.42
0.765534746362967 1.37
0.765534746362967 1.44
0.765534746362967 1.47
0.765534746362967 1.46
0.678071905112633 1.48
0.678071905112633 1.51
0.678071905112633 1.48
0.678071905112633 1.51
0.678071905112633 1.45
0.678071905112633 1.44
0.678071905112633 1.45
0.678071905112633 1.55
0.847996906554959 1.48
0.765534746362967 1.43
0.847996906554959 1.46
0.847996906554959 1.35
0.765534746362967 1.51
0.765534746362967 1.41
0.847996906554959 1.49
0.925999418556228 1.44
0.765534746362967 1.41
0.765534746362967 1.43
0.765534746362967 1.46
0.765534746362967 1.39
0.765534746362967 1.43
0.584962500721156 1.48
0.765534746362967 1.41
0.765534746362967 1.41
0.678071905112633 1.41
0.765534746362967 1.38
0.765534746362967 1.39
0.765534746362967 1.50
0.765534746362967 1.50
0.765534746362967 1.45
0.678071905112633 1.38
0.765534746362967 1.52
0.678071905112633 1.38
0.678071905112633 1.52
0.678071905112633 1.44
0.765534746362967 1.48
0.678071905112633 1.37
0.678071905112633 1.45
0.678071905112633 1.36
0.678071905112633 1.38
0.765534746362967 1.39
0.925999418556228 1.39
0.765534746362967 1.45
0.847996906554959 1.46
0.765534746362967 1.56
0.678071905112633 1.40
0.847996906554959 1.39
0.765534746362967 1.48
0.765534746362967 1.42
0.765534746362967 1.54
0.847996906554959 1.41
0.765534746362967 1.45
0.765534746362967 1.40
0.765534746362967 1.52
0.765534746362967 1.40
0.847996906554959 1.53
0.765534746362967 1.36
0.847996906554959 1.49
0.847996906554959 1.44
0.847996906554959 1.51
0.765534746362967 1.49
0.678071905112633 1.53
0.765534746362967 1.62
0.847996906554959 1.50
0.678071905112633 1.43
0.678071905112633 1.51
0.678071905112633 1.52
0.678071905112633 1.48
0.678071905112633 1.43
0.678071905112633 1.44
0.678071905112633 1.51
0.678071905112633 1.33
0.678071905112633 1.53
0.765534746362967 1.37
0.584962500721156 1.54
0.765534746362967 1.27
0.765534746362967 1.44
0.678071905112633 1.63
0.678071905112633 1.51
0.678071905112633 1.36
0.847996906554959 1.34
0.847996906554959 1.47
0.765534746362967 1.50
0.847996906554959 1.40
0.847996906554959 1.49
0.765534746362967 1.51
0.847996906554959 1.40
0.847996906554959 1.50
0.678071905112633 1.60
0.765534746362967 1.69
0.678071905112633 1.44
0.765534746362967 1.35
0.678071905112633 1.50
0.678071905112633 1.44
0.765534746362967 1.51
0.678071905112633 1.52
0.847996906554959 1.59
0.765534746362967 1.52
0.765534746362967 1.35
0.765534746362967 1.41
0.765534746362967 1.46
0.765534746362967 1.37
0.765534746362967 1.43
0.765534746362967 1.44
0.765534746362967 1.56
0.765534746362967 1.44
0.847996906554959 1.42
0.847996906554959 1.36
0.847996906554959 1.44
0.765534746362967 1.49
0.847996906554959 1.50
0.847996906554959 1.39
0.925999418556228 1.33
0.925999418556228 1.52
0.925999418556228 1.57
1 1.45
0.847996906554959 1.45
0.925999418556228 1.42
0.925999418556228 1.41
0.925999418556228 1.43
0.765534746362967 1.47
0.765534746362967 1.47
0.765534746362967 1.55
0.847996906554959 1.40
0.765534746362967 1.47
0.765534746362967 1.38
0.847996906554959 1.55
0.765534746362967 1.47
0.678071905112633 1.50
0.678071905112633 1.43
0.678071905112633 1.54
0.678071905112633 1.36
0.678071905112633 1.50
0.678071905112633 1.41
0.765534746362967 1.47
0.765534746362967 1.41
0.765534746362967 1.54
0.847996906554959 1.39
0.847996906554959 1.35
0.847996906554959 1.57
0.765534746362967 1.42
0.765534746362967 1.42
0.925999418556228 1.47
0.765534746362967 1.50
0.847996906554959 1.36
0.765534746362967 1.45
0.765534746362967 1.46
0.765534746362967 1.52
0.765534746362967 1.52
0.765534746362967 1.49
0.678071905112633 1.53
0.765534746362967 1.42
0.847996906554959 1.48
0.765534746362967 1.50
0.765534746362967 1.37
0.765534746362967 1.53
0.765534746362967 1.45
0.765534746362967 1.48
0.847996906554959 1.43
0.765534746362967 1.42
0.765534746362967 1.40
0.847996906554959 1.54
0.765534746362967 1.49
0.765534746362967 1.41
0.765534746362967 1.53
0.847996906554959 1.50
0.765534746362967 1.49
0.765534746362967 1.42
0.678071905112633 1.44
0.678071905112633 1.51
0.765534746362967 1.42
0.765534746362967 1.41
0.678071905112633 1.50
0.678071905112633 1.41
0.584962500721156 1.45
0.678071905112633 1.38
0.847996906554959 1.48
0.678071905112633 1.54
0.847996906554959 1.47
0.925999418556228 1.46
0.765534746362967 1.42
0.765534746362967 1.41
0.847996906554959 1.50
0.847996906554959 1.45
0.925999418556228 1.41
0.847996906554959 1.55
0.847996906554959 1.52
0.765534746362967 1.59
0.847996906554959 1.51
0.765534746362967 1.50
0.765534746362967 1.48
0.847996906554959 1.44
0.847996906554959 1.44
0.765534746362967 1.49
0.765534746362967 1.53
0.925999418556228 1.27
0.765534746362967 1.53
0.765534746362967 1.63
0.765534746362967 1.38
0.765534746362967 1.43
0.765534746362967 1.39
0.765534746362967 1.50
0.765534746362967 1.52
0.765534746362967 1.48
0.765534746362967 1.38
0.765534746362967 1.38
0.765534746362967 1.62
0.765534746362967 1.42
0.847996906554959 1.40
0.765534746362967 1.39
0.765534746362967 1.45
0.678071905112633 1.56
0.678071905112633 1.50
0.765534746362967 1.46
0.765534746362967 1.42
0.765534746362967 1.38
0.765534746362967 1.49
0.765534746362967 1.48
0.765534746362967 1.39
0.765534746362967 1.47
0.765534746362967 1.37
0.847996906554959 1.56
0.765534746362967 1.41
0.847996906554959 1.46
0.584962500721156 1.53
0.678071905112633 1.50
0.678071905112633 1.46
0.678071905112633 1.36
0.678071905112633 1.34
0.678071905112633 1.29
0.765534746362967 1.49
0.678071905112633 1.43
0.678071905112633 1.27
0.678071905112633 1.43
0.678071905112633 1.35
0.765534746362967 1.44
0.584962500721156 1.39
0.584962500721156 1.55
0.765534746362967 1.50
0.678071905112633 1.50
0.678071905112633 1.52
0.678071905112633 1.58
0.765534746362967 1.38
0.678071905112633 1.51
0.678071905112633 1.45
0.678071905112633 1.53
0.765534746362967 1.43
0.765534746362967 1.44
0.678071905112633 1.48
0.765534746362967 1.44
0.765534746362967 1.49
0.678071905112633 1.53
0.678071905112633 1.52
0.678071905112633 1.40
0.678071905112633 1.51
0.678071905112633 1.47
0.678071905112633 1.49
0.678071905112633 1.51
0.765534746362967 1.39
0.765534746362967 1.55
0.678071905112633 1.41
0.765534746362967 1.54
0.584962500721156 1.35
0.678071905112633 1.60
0.765534746362967 1.50
0.847996906554959 1.37
0.847996906554959 1.37
0.847996906554959 1.37
0.847996906554959 1.49
0.847996906554959 1.62
0.765534746362967 1.48
0.847996906554959 1.51
0.678071905112633 1.45
0.678071905112633 1.42
0.584962500721156 1.42
0.678071905112633 1.47
0.678071905112633 1.46
0.678071905112633 1.51
0.678071905112633 1.49
0.678071905112633 1.51
0.765534746362967 1.50
1 1.42
0.678071905112633 1.51
0.847996906554959 1.52
0.847996906554959 1.37
0.847996906554959 1.51
0.847996906554959 1.43
0.925999418556228 1.35
0.925999418556228 1.40
0.847996906554959 1.47
1 1.32
0.925999418556228 1.39
0.847996906554959 1.50
0.925999418556228 1.43
0.847996906554959 1.56
0.925999418556228 1.43
0.765534746362967 1.48
0.678071905112633 1.47
0.765534746362967 1.48
0.678071905112633 1.49
0.678071905112633 1.47
0.678071905112633 1.45
0.765534746362967 1.40
0.678071905112633 1.40
0.678071905112633 1.42
0.678071905112633 1.49
0.678071905112633 1.40
0.765534746362967 1.41
0.765534746362967 1.37
0.765534746362967 1.43
0.678071905112633 1.35
0.765534746362967 1.40
0.847996906554959 1.51
0.847996906554959 1.44
0.765534746362967 1.51
0.847996906554959 1.45
0.847996906554959 1.49
0.847996906554959 1.42
0.847996906554959 1.51
0.847996906554959 1.45
0.678071905112633 1.42
0.678071905112633 1.39
0.678071905112633 1.46
0.678071905112633 1.45
0.678071905112633 1.42
0.678071905112633 1.45
0.678071905112633 1.39
0.678071905112633 1.55
0.765534746362967 1.47
0.678071905112633 1.51
0.678071905112633 1.41
0.847996906554959 1.35
0.678071905112633 1.46
0.678071905112633 1.53
0.678071905112633 1.36
0.678071905112633 1.45
0.678071905112633 1.47
0.678071905112633 1.35
0.678071905112633 1.52
0.678071905112633 1.37
0.678071905112633 1.39
0.678071905112633 1.55
0.678071905112633 1.35
0.678071905112633 1.43
0.678071905112633 1.45
0.678071905112633 1.41
0.678071905112633 1.43
0.678071905112633 1.52
0.584962500721156 1.43
0.584962500721156 1.42
0.584962500721156 1.47
0.584962500721156 1.42
0.584962500721156 1.31
0.678071905112633 1.55
0.678071905112633 1.37
0.678071905112633 1.49
0.678071905112633 1.44
0.678071905112633 1.44
0.678071905112633 1.40
0.678071905112633 1.33
0.765534746362967 1.53
0.678071905112633 1.46
0.765534746362967 1.45
0.678071905112633 1.43
0.678071905112633 1.37
0.678071905112633 1.41
0.765534746362967 1.43
0.678071905112633 1.42
0.584962500721156 1.30
0.584962500721156 1.43
0.584962500721156 1.46
0.678071905112633 1.46
0.584962500721156 1.58
0.584962500721156 1.51
0.584962500721156 1.54
0.678071905112633 1.41
0.678071905112633 1.50
0.584962500721156 1.36
0.584962500721156 1.40
0.678071905112633 1.45
0.584962500721156 1.48
0.584962500721156 1.43
0.678071905112633 1.38
0.584962500721156 1.56
0.765534746362967 1.44
0.847996906554959 1.41
0.847996906554959 1.55
0.678071905112633 1.39
0.765534746362967 1.47
0.765534746362967 1.36
0.765534746362967 1.43
0.765534746362967 1.47
0.678071905112633 1.48
0.584962500721156 1.42
0.678071905112633 1.40
0.678071905112633 1.47
0.765534746362967 1.42
0.678071905112633 1.43
0.584962500721156 1.51
0.765534746362967 1.50
0.678071905112633 1.45
0.678071905112633 1.49
0.765534746362967 1.47
0.765534746362967 1.52
0.765534746362967 1.46
0.847996906554959 1.33
0.678071905112633 1.53
0.765534746362967 1.46
0.847996906554959 1.38
0.765534746362967 1.44
0.765534746362967 1.47
0.765534746362967 1.62
0.847996906554959 1.48
0.765534746362967 1.40
0.765534746362967 1.53
0.847996906554959 1.34
0.847996906554959 1.44
0.847996906554959 1.46
0.765534746362967 1.53
0.925999418556228 1.37
0.847996906554959 1.50
0.847996906554959 1.53
0.925999418556228 1.45
0.847996906554959 1.44
0.765534746362967 1.53
0.765534746362967 1.46
0.765534746362967 1.45
0.678071905112633 1.46
0.765534746362967 1.34
0.765534746362967 1.37
0.765534746362967 1.46
0.765534746362967 1.46
0.765534746362967 1.56
0.678071905112633 1.45
0.847996906554959 1.38
0.847996906554959 1.38
0.765534746362967 1.39
0.847996906554959 1.53
0.847996906554959 1.51
0.765534746362967 1.52
0.678071905112633 1.50
0.765534746362967 1.49
0.678071905112633 1.37
0.765534746362967 1.40
0.765534746362967 1.43
0.765534746362967 1.48
0.765534746362967 1.45
0.765534746362967 1.54
0.925999418556228 1.45
0.847996906554959 1.47
0.925999418556228 1.42
0.765534746362967 1.54
0.925999418556228 1.51
0.765534746362967 1.51
0.925999418556228 1.38
0.925999418556228 1.51
0.765534746362967 1.47
0.678071905112633 1.39
0.678071905112633 1.45
0.678071905112633 1.46
0.678071905112633 1.42
0.678071905112633 1.46
0.765534746362967 1.42
0.765534746362967 1.51
0.765534746362967 1.52
0.765534746362967 1.63
0.847996906554959 1.45
0.765534746362967 1.48
0.765534746362967 1.43
0.765534746362967 1.53
0.678071905112633 1.45
0.847996906554959 1.47
0.847996906554959 1.42
0.765534746362967 1.45
0.765534746362967 1.51
0.678071905112633 1.48
0.765534746362967 1.44
0.765534746362967 1.56
0.765534746362967 1.40
0.765534746362967 1.45
0.765534746362967 1.39
0.847996906554959 1.42
0.847996906554959 1.54
0.765534746362967 1.44
0.765534746362967 1.44
0.765534746362967 1.53
0.847996906554959 1.52
0.847996906554959 1.50
0.765534746362967 1.49
0.925999418556228 1.47
0.847996906554959 1.38
1 1.36
0.765534746362967 1.40
0.847996906554959 1.60
0.765534746362967 1.48
0.847996906554959 1.46
0.765534746362967 1.49
0.765534746362967 1.53
0.765534746362967 1.46
0.847996906554959 1.44
0.765534746362967 1.50
0.847996906554959 1.32
0.847996906554959 1.48
0.925999418556228 1.28
0.678071905112633 1.38
0.584962500721156 1.51
0.765534746362967 1.41
0.765534746362967 1.51
0.765534746362967 1.48
0.765534746362967 1.42
0.765534746362967 1.43
0.678071905112633 1.52
0.765534746362967 1.53
0.678071905112633 1.42
0.678071905112633 1.45
0.765534746362967 1.39
0.678071905112633 1.46
0.678071905112633 1.40
0.678071905112633 1.40
0.678071905112633 1.36
0.765534746362967 1.49
0.765534746362967 1.58
0.765534746362967 1.46
0.678071905112633 1.40
0.765534746362967 1.36
0.678071905112633 1.46
0.765534746362967 1.49
0.765534746362967 1.46
0.678071905112633 1.47
0.678071905112633 1.46
0.678071905112633 1.43
0.678071905112633 1.42
0.678071905112633 1.44
0.678071905112633 1.32
0.584962500721156 1.51
0.584962500721156 1.45
0.678071905112633 1.33
0.584962500721156 1.44
0.678071905112633 1.49
0.678071905112633 1.43
0.765534746362967 1.44
0.678071905112633 1.51
0.678071905112633 1.47
0.678071905112633 1.49
0.765534746362967 1.61
0.678071905112633 1.63
0.678071905112633 1.47
0.678071905112633 1.40
0.584962500721156 1.46
0.678071905112633 1.37
0.584962500721156 1.50
0.678071905112633 1.40
0.678071905112633 1.38
0.678071905112633 1.42
0.584962500721156 1.43
0.678071905112633 1.46
0.584962500721156 1.52
0.584962500721156 1.40
0.678071905112633 1.42
0.678071905112633 1.47
0.847996906554959 1.49
0.847996906554959 1.48
0.847996906554959 1.44
0.847996906554959 1.48
0.925999418556228 1.39
0.847996906554959 1.35
0.847996906554959 1.50
0.765534746362967 1.54
0.847996906554959 1.40
0.765534746362967 1.50
0.765534746362967 1.31
0.847996906554959 1.47
0.765534746362967 1.50
0.765534746362967 1.43
0.765534746362967 1.39
0.765534746362967 1.46
0.765534746362967 1.36
0.765534746362967 1.29
0.765534746362967 1.40
0.765534746362967 1.34
0.678071905112633 1.38
0.678071905112633 1.38
0.765534746362967 1.43
0.584962500721156 1.40
0.765534746362967 1.43
0.678071905112633 1.42
0.678071905112633 1.39
0.678071905112633 1.42
0.678071905112633 1.40
0.678071905112633 1.38
0.678071905112633 1.61
0.678071905112633 1.50
0.678071905112633 1.44
0.678071905112633 1.51
0.678071905112633 1.51
0.584962500721156 1.47
0.678071905112633 1.40
0.584962500721156 1.42
0.678071905112633 1.42
0.765534746362967 1.42
0.765534746362967 1.48
0.765534746362967 1.44
0.765534746362967 1.41
0.847996906554959 1.50
0.765534746362967 1.47
0.765534746362967 1.46
0.847996906554959 1.42
0.765534746362967 1.58
0.765534746362967 1.44
0.765534746362967 1.41
0.765534746362967 1.50
0.765534746362967 1.44
0.765534746362967 1.50
0.765534746362967 1.49
0.765534746362967 1.45
0.765534746362967 1.46
0.765534746362967 1.41
0.847996906554959 1.43
0.765534746362967 1.40
0.678071905112633 1.44
0.765534746362967 1.43
0.678071905112633 1.48
0.765534746362967 1.42
0.847996906554959 1.39
0.678071905112633 1.43
0.584962500721156 1.49
0.678071905112633 1.40
0.678071905112633 1.41
0.678071905112633 1.52
0.584962500721156 1.50
0.584962500721156 1.19
0.678071905112633 1.47
0.847996906554959 1.33
0.765534746362967 1.43
0.765534746362967 1.50
0.765534746362967 1.47
0.847996906554959 1.44
0.765534746362967 1.48
0.765534746362967 1.49
0.765534746362967 1.52
0.765534746362967 1.35
0.678071905112633 1.48
0.765534746362967 1.50
0.765534746362967 1.32
0.678071905112633 1.42
0.678071905112633 1.47
0.678071905112633 1.52
0.678071905112633 1.42
0.765534746362967 1.48
0.765534746362967 1.52
0.765534746362967 1.36
0.678071905112633 1.47
0.765534746362967 1.44
0.765534746362967 1.45
0.765534746362967 1.47
0.765534746362967 1.48
0.765534746362967 1.46
0.847996906554959 1.46
0.847996906554959 1.43
0.765534746362967 1.52
0.765534746362967 1.52
0.765534746362967 1.37
0.765534746362967 1.37
0.765534746362967 1.61
0.765534746362967 1.57
0.765534746362967 1.56
0.847996906554959 1.43
0.765534746362967 1.55
0.765534746362967 1.40
0.765534746362967 1.53
0.765534746362967 1.54
0.678071905112633 1.35
0.847996906554959 1.50
0.925999418556228 1.44
0.925999418556228 1.38
1 1.35
0.847996906554959 1.33
0.925999418556228 1.52
0.847996906554959 1.53
0.847996906554959 1.51
0.765534746362967 1.51
0.765534746362967 1.35
0.765534746362967 1.48
0.765534746362967 1.52
0.847996906554959 1.37
0.765534746362967 1.41
0.678071905112633 1.38
0.847996906554959 1.37
0.847996906554959 1.43
0.847996906554959 1.47
0.847996906554959 1.46
0.678071905112633 1.41
0.847996906554959 1.45
0.765534746362967 1.40
0.765534746362967 1.53
1 1.48
